<?xml version="1.0" encoding="utf-8"?>
<!-- Generator: Adobe Illustrator 15.0.0, SVG Export Plug-In . SVG Version: 6.00 Build 0)  -->
<!DOCTYPE svg PUBLIC "-//W3C//DTD SVG 1.1//EN" "http://www.w3.org/Graphics/SVG/1.1/DTD/svg11.dtd">
<svg version="1.1" id="圖層_1" xmlns="http://www.w3.org/2000/svg" xmlns:xlink="http://www.w3.org/1999/xlink" x="0px" y="0px"
	 width="32px" height="23px" viewBox="-41.5 65 32 23" enable-background="new -41.5 65 32 23" xml:space="preserve">
<g>
	<path fill="#C28D70" d="M-12.704,87.266h-26.27c-1.392,0-2.526-1.128-2.526-2.525V67.525c0-1.392,1.135-2.525,2.526-2.525h26.271
		c1.391,0,2.525,1.134,2.525,2.525v17.217C-10.177,86.138-11.313,87.266-12.704,87.266L-12.704,87.266z M-38.974,66.01
		c-0.834,0-1.515,0.682-1.515,1.514V84.74c0,0.838,0.681,1.515,1.515,1.515h26.271c0.838,0,1.514-0.677,1.514-1.515V67.525
		c0-0.834-0.676-1.515-1.514-1.515L-38.974,66.01L-38.974,66.01z"/>
	<path fill="#C28D70" d="M-25.836,78.672c-0.676,0-1.345-0.225-1.854-0.667l-12.912-11.249c-0.206-0.188-0.234-0.503-0.045-0.714
		c0.183-0.214,0.504-0.233,0.709-0.052l12.908,11.25c0.647,0.562,1.736,0.562,2.383,0l12.9-11.244
		c0.213-0.188,0.527-0.168,0.715,0.049c0.184,0.208,0.162,0.527-0.05,0.71l-12.901,11.244
		C-24.493,78.447-25.166,78.672-25.836,78.672L-25.836,78.672z"/>
</g>
</svg>
