<?xml version="1.0" encoding="utf-8"?>
<!-- Generator: Adobe Illustrator 15.0.0, SVG Export Plug-In . SVG Version: 6.00 Build 0)  -->
<!DOCTYPE svg PUBLIC "-//W3C//DTD SVG 1.1//EN" "http://www.w3.org/Graphics/SVG/1.1/DTD/svg11.dtd">
<svg version="1.1" id="圖層_1" xmlns="http://www.w3.org/2000/svg" xmlns:xlink="http://www.w3.org/1999/xlink" x="0px" y="0px"
	 width="32px" height="20px" viewBox="-33.5 62 32 20" enable-background="new -33.5 62 32 20" xml:space="preserve">
<g>
	<path fill="#C28D70" d="M-2.667,72.472h-26.181c-0.32,0-0.578-0.258-0.578-0.58c0-0.321,0.258-0.581,0.578-0.581h26.181
		c0.323,0,0.581,0.26,0.581,0.581C-2.086,72.214-2.344,72.472-2.667,72.472L-2.667,72.472z"/>
	<path fill="#C28D70" d="M-28.848,72.472c-0.148,0-0.295-0.058-0.408-0.17c-0.228-0.229-0.228-0.595,0-0.821l9.306-9.308
		c0.227-0.228,0.597-0.228,0.825,0c0.226,0.227,0.226,0.596,0,0.823l-9.309,9.307C-28.548,72.414-28.697,72.472-28.848,72.472
		L-28.848,72.472z"/>
	<path fill="#C28D70" d="M-19.539,81.781c-0.147,0-0.298-0.059-0.412-0.172l-9.306-9.308c-0.228-0.229-0.228-0.595,0-0.821
		c0.227-0.229,0.593-0.229,0.821,0l9.309,9.309c0.226,0.228,0.226,0.595,0,0.82C-19.24,81.724-19.388,81.781-19.539,81.781
		L-19.539,81.781z"/>
	<path fill="#C28D70" d="M-32.918,81.781c-0.321,0-0.582-0.259-0.582-0.582V62.584c0-0.322,0.261-0.584,0.582-0.584
		s0.583,0.262,0.583,0.584v18.615C-32.335,81.522-32.597,81.781-32.918,81.781L-32.918,81.781z"/>
</g>
</svg>
