<?xml version="1.0" encoding="utf-8"?>
<!-- Generator: Adobe Illustrator 15.0.0, SVG Export Plug-In . SVG Version: 6.00 Build 0)  -->
<!DOCTYPE svg PUBLIC "-//W3C//DTD SVG 1.1//EN" "http://www.w3.org/Graphics/SVG/1.1/DTD/svg11.dtd">
<svg version="1.1" id="圖層_1" xmlns="http://www.w3.org/2000/svg" xmlns:xlink="http://www.w3.org/1999/xlink" x="0px" y="0px"
	 width="285px" height="112px" viewBox="0 0 285 112" enable-background="new 0 0 285 112" xml:space="preserve">
<g>
	<path fill="#AB062B" d="M29.16,2.463h15.316c4.74,0,8.814,1.03,12.223,3.085c3.404,2.057,6.242,5.347,8.516,9.865
		c2.604,5.138,4.559,11.057,5.869,17.762s1.967,14.043,1.967,22.003c0,7.554-0.586,14.643-1.766,21.272
		c-1.18,6.627-2.9,12.42-5.164,17.377c-2.258,4.959-5.047,8.862-8.363,11.715c-3.322,2.848-7.119,4.276-11.398,4.276H29.16V2.463z
		 M36.898,101.956h8.207c2.6,0,5.049-1,7.338-3c2.295-2.008,4.295-4.975,6.008-8.904c1.707-3.931,3.053-8.785,4.035-14.566
		c0.982-5.779,1.473-12.445,1.473-19.996c0-6.578-0.465-12.625-1.391-18.148c-0.928-5.523-2.221-10.278-3.887-14.261
		c-1.664-3.98-3.646-7.089-5.951-9.322c-2.307-2.239-4.824-3.354-7.559-3.354h-8.273V101.956z"/>
	<path fill="#AB062B" d="M114.666,2.463v6.937H90.388V47.78h16.238v6.938H90.388v48.164h24.277v6.937h-32.02V2.463H114.666z"/>
	<path fill="#AB062B" d="M135.869,105.503c1.148,0,2.275-0.357,3.391-1.08c1.113-0.719,2.104-1.797,2.978-3.236
		c0.867-1.436,1.566-3.197,2.1-5.279c0.527-2.08,0.793-4.481,0.793-7.203c0-3.288-0.361-6.205-1.09-8.75
		c-0.732-2.545-1.682-4.892-2.863-7.049c-1.18-2.158-2.529-4.174-4.055-6.05c-1.518-1.876-3.068-3.767-4.641-5.667
		c-1.582-1.9-3.129-3.889-4.65-5.973c-1.525-2.081-2.875-4.39-4.053-6.934c-1.18-2.545-2.137-5.396-2.861-8.557
		c-0.727-3.159-1.092-6.793-1.092-10.901c0-4.111,0.33-7.925,0.996-11.448c0.656-3.519,1.627-6.559,2.908-9.131
		c1.277-2.567,2.848-4.583,4.715-6.049C130.308,0.731,132.449,0,134.875,0c4.371,0,7.812,2.134,10.337,6.396
		c2.525,4.265,4.352,10.432,5.477,18.494l-3.971,4.239c-0.463-3.284-1.055-6.292-1.771-9.02c-0.717-2.72-1.576-5.058-2.58-7.01
		c-1.003-1.952-2.156-3.452-3.457-4.506c-1.303-1.056-2.764-1.582-4.396-1.582c-1.457,0-2.73,0.479-3.818,1.43
		c-1.098,0.95-1.998,2.182-2.717,3.697c-0.717,1.515-1.254,3.237-1.619,5.161c-0.365,1.929-0.547,3.891-0.547,5.896
		c0,2.824,0.375,5.408,1.127,7.746c0.748,2.34,1.727,4.56,2.945,6.664c1.209,2.11,2.602,4.127,4.164,6.049
		c1.568,1.93,3.162,3.895,4.781,5.895c1.621,2.006,3.214,4.088,4.777,6.245c1.566,2.157,2.957,4.52,4.168,7.091
		c1.213,2.57,2.197,5.383,2.945,8.438c0.752,3.06,1.125,6.462,1.125,10.212c0,4.268-0.348,8.257-1.041,11.984
		c-0.695,3.724-1.736,6.985-3.127,9.788c-1.387,2.802-3.119,5.007-5.176,6.626c-2.062,1.617-4.462,2.429-7.195,2.429
		c-2.203,0-4.178-0.567-5.92-1.695c-1.742-1.132-3.283-2.778-4.617-4.937c-1.332-2.157-2.475-4.801-3.424-7.934
		c-0.947-3.135-1.729-6.676-2.348-10.636l4.17-4.009c0.486,3.494,1.137,6.631,1.951,9.404s1.77,5.121,2.859,7.05
		c1.094,1.927,2.305,3.39,3.643,4.392C132.951,105.001,134.369,105.503,135.869,105.503z"/>
	<path fill="#AB062B" d="M160.575,2.463h7.74v107.355h-7.74V2.463z"/>
	<path fill="#AB062B" d="M179.894,2.463h15.943c2.781,0,5.209,0.697,7.295,2.082c2.082,1.39,3.82,3.326,5.211,5.818
		c1.385,2.492,2.434,5.448,3.141,8.865c0.707,3.42,1.059,7.157,1.059,11.214c0,3.336-0.273,6.459-0.809,9.359
		c-0.541,2.904-1.311,5.523-2.299,7.863c-0.992,2.34-2.188,4.368-3.572,6.086c-1.389,1.724-2.924,3.047-4.6,3.973l16.77,52.095
		h-8.963l-16.014-50.478h-5.42v50.478h-7.742V2.463z M187.636,53.948h4.463c1.742,0,3.348-0.54,4.816-1.619
		c1.463-1.078,2.738-2.61,3.816-4.588c1.082-1.977,1.922-4.378,2.533-7.201c0.607-2.827,0.91-5.988,0.91-9.481
		c0-3.185-0.244-6.132-0.729-8.827c-0.486-2.699-1.16-5.007-2.018-6.935c-0.863-1.926-1.889-3.43-3.076-4.51
		c-1.189-1.077-2.492-1.616-3.904-1.616h-6.813V53.948z"/>
	<path fill="#AB062B" d="M255.841,2.463v6.937h-24.277V47.78h16.24v6.938h-16.24v48.164h24.277v6.937h-32.021V2.463H255.841z"/>
</g>
</svg>
